Projetokey/simulation/qsim/KEY1.msim.vcd
$comment
	File created using the following command:
		vcd file KEY1.msim.vcd -direction
$end
$date
	Tue Oct 21 21:31:41 2025
$end
$version
	ModelSim Version 10.5b
$end
$timescale
	1ps
$end

$scope module block1_vhd_vec_tst $end
$var wire 1 ! BP $end
$var wire 1 " BPR $end
$var wire 1 # CK $end
$var wire 1 $ CK_EN $end
$var wire 1 % INI $end
$var wire 1 & KEY1 $end
$var wire 1 ' LD [5] $end
$var wire 1 ( LD [4] $end
$var wire 1 ) LD [3] $end
$var wire 1 * LD [2] $end
$var wire 1 + LD [1] $end
$var wire 1 , LD [0] $end
$var wire 1 - SF $end
$var wire 1 . ST $end
$var wire 1 / TVA [3] $end
$var wire 1 0 TVA [2] $end
$var wire 1 1 TVA [1] $end
$var wire 1 2 TVA [0] $end
$var wire 1 3 TVB [3] $end
$var wire 1 4 TVB [2] $end
$var wire 1 5 TVB [1] $end
$var wire 1 6 TVB [0] $end
$var wire 1 7 TVP [3] $end
$var wire 1 8 TVP [2] $end
$var wire 1 9 TVP [1] $end
$var wire 1 : TVP [0] $end
$var wire 1 ; VDP $end

$scope module i1 $end
$var wire 1 < gnd $end
$var wire 1 = vcc $end
$var wire 1 > unknown $end
$var wire 1 ? devoe $end
$var wire 1 @ devclrn $end
$var wire 1 A devpor $end
$var wire 1 B ww_devoe $end
$var wire 1 C ww_devclrn $end
$var wire 1 D ww_devpor $end
$var wire 1 E ww_BPR $end
$var wire 1 F ww_INI $end
$var wire 1 G ww_CK $end
$var wire 1 H ww_CK_EN $end
$var wire 1 I ww_BP $end
$var wire 1 J ww_KEY1 $end
$var wire 1 K ww_SF $end
$var wire 1 L ww_ST $end
$var wire 1 M ww_VDP $end
$var wire 1 N ww_LD [5] $end
$var wire 1 O ww_LD [4] $end
$var wire 1 P ww_LD [3] $end
$var wire 1 Q ww_LD [2] $end
$var wire 1 R ww_LD [1] $end
$var wire 1 S ww_LD [0] $end
$var wire 1 T ww_TVA [3] $end
$var wire 1 U ww_TVA [2] $end
$var wire 1 V ww_TVA [1] $end
$var wire 1 W ww_TVA [0] $end
$var wire 1 X ww_TVB [3] $end
$var wire 1 Y ww_TVB [2] $end
$var wire 1 Z ww_TVB [1] $end
$var wire 1 [ ww_TVB [0] $end
$var wire 1 \ ww_TVP [3] $end
$var wire 1 ] ww_TVP [2] $end
$var wire 1 ^ ww_TVP [1] $end
$var wire 1 _ ww_TVP [0] $end
$var wire 1 ` \~QUARTUS_CREATED_ADC1~_CHSEL_bus\ [4] $end
$var wire 1 a \~QUARTUS_CREATED_ADC1~_CHSEL_bus\ [3] $end
$var wire 1 b \~QUARTUS_CREATED_ADC1~_CHSEL_bus\ [2] $end
$var wire 1 c \~QUARTUS_CREATED_ADC1~_CHSEL_bus\ [1] $end
$var wire 1 d \~QUARTUS_CREATED_ADC1~_CHSEL_bus\ [0] $end
$var wire 1 e \~QUARTUS_CREATED_ADC2~_CHSEL_bus\ [4] $end
$var wire 1 f \~QUARTUS_CREATED_ADC2~_CHSEL_bus\ [3] $end
$var wire 1 g \~QUARTUS_CREATED_ADC2~_CHSEL_bus\ [2] $end
$var wire 1 h \~QUARTUS_CREATED_ADC2~_CHSEL_bus\ [1] $end
$var wire 1 i \~QUARTUS_CREATED_ADC2~_CHSEL_bus\ [0] $end
$var wire 1 j \INI~inputclkctrl_INCLK_bus\ [3] $end
$var wire 1 k \INI~inputclkctrl_INCLK_bus\ [2] $end
$var wire 1 l \INI~inputclkctrl_INCLK_bus\ [1] $end
$var wire 1 m \INI~inputclkctrl_INCLK_bus\ [0] $end
$var wire 1 n \CK~inputclkctrl_INCLK_bus\ [3] $end
$var wire 1 o \CK~inputclkctrl_INCLK_bus\ [2] $end
$var wire 1 p \CK~inputclkctrl_INCLK_bus\ [1] $end
$var wire 1 q \CK~inputclkctrl_INCLK_bus\ [0] $end
$var wire 1 r \~QUARTUS_CREATED_GND~I_combout\ $end
$var wire 1 s \~QUARTUS_CREATED_UNVM~~busy\ $end
$var wire 1 t \~QUARTUS_CREATED_ADC1~~eoc\ $end
$var wire 1 u \~QUARTUS_CREATED_ADC2~~eoc\ $end
$var wire 1 v \BPR~output_o\ $end
$var wire 1 w \BP~output_o\ $end
$var wire 1 x \VDP~output_o\ $end
$var wire 1 y \LD[5]~output_o\ $end
$var wire 1 z \LD[4]~output_o\ $end
$var wire 1 { \LD[3]~output_o\ $end
$var wire 1 | \LD[2]~output_o\ $end
$var wire 1 } \LD[1]~output_o\ $end
$var wire 1 ~ \LD[0]~output_o\ $end
$var wire 1 !! \TVA[3]~output_o\ $end
$var wire 1 "! \TVA[2]~output_o\ $end
$var wire 1 #! \TVA[1]~output_o\ $end
$var wire 1 $! \TVA[0]~output_o\ $end
$var wire 1 %! \TVB[3]~output_o\ $end
$var wire 1 &! \TVB[2]~output_o\ $end
$var wire 1 '! \TVB[1]~output_o\ $end
$var wire 1 (! \TVB[0]~output_o\ $end
$var wire 1 )! \TVP[3]~output_o\ $end
$var wire 1 *! \TVP[2]~output_o\ $end
$var wire 1 +! \TVP[1]~output_o\ $end
$var wire 1 ,! \TVP[0]~output_o\ $end
$var wire 1 -! \CK~input_o\ $end
$var wire 1 .! \CK~inputclkctrl_outclk\ $end
$var wire 1 /! \SF~input_o\ $end
$var wire 1 0! \inst1|E.INICIO~feeder_combout\ $end
$var wire 1 1! \INI~input_o\ $end
$var wire 1 2! \INI~inputclkctrl_outclk\ $end
$var wire 1 3! \CK_EN~input_o\ $end
$var wire 1 4! \KEY1~input_o\ $end
$var wire 1 5! \inst|BP~0_combout\ $end
$var wire 1 6! \inst|BP~combout\ $end
$var wire 1 7! \inst1|E.TVB_I~3_combout\ $end
$var wire 1 8! \inst1|VB[3]~1_combout\ $end
$var wire 1 9! \inst1|E.TAB~q\ $end
$var wire 1 :! \inst1|AA[0]~3_combout\ $end
$var wire 1 ;! \inst1|E.INICIO~6_combout\ $end
$var wire 1 <! \inst1|AB[1]~3_combout\ $end
$var wire 1 =! \inst1|E.INICIO~0_combout\ $end
$var wire 1 >! \inst1|E.TVA_I~0_combout\ $end
$var wire 1 ?! \inst1|E.FALHA~0_combout\ $end
$var wire 1 @! \inst1|VB[3]~2_combout\ $end
$var wire 1 A! \inst1|VP[3]~1_combout\ $end
$var wire 1 B! \inst1|VP[3]~2_combout\ $end
$var wire 1 C! \inst1|VP[0]~8_combout\ $end
$var wire 1 D! \inst1|VP[1]~5_combout\ $end
$var wire 1 E! \inst1|VP[1]~6_combout\ $end
$var wire 1 F! \inst1|VP[1]~7_combout\ $end
$var wire 1 G! \inst1|Add4~1_combout\ $end
$var wire 1 H! \inst1|VP[2]~4_combout\ $end
$var wire 1 I! \inst1|Add4~0_combout\ $end
$var wire 1 J! \inst1|VP[3]~3_combout\ $end
$var wire 1 K! \inst1|VP[3]~0_combout\ $end
$var wire 1 L! \inst1|E.TVA_I~1_combout\ $end
$var wire 1 M! \inst1|E.TVA_I~2_combout\ $end
$var wire 1 N! \inst1|E.TVA_I~3_combout\ $end
$var wire 1 O! \inst1|E.TVA_I~4_combout\ $end
$var wire 1 P! \inst1|E.FALHA~q\ $end
$var wire 1 Q! \inst1|VB[0]~8_combout\ $end
$var wire 1 R! \inst1|VB[3]~3_combout\ $end
$var wire 1 S! \inst1|VB[3]~4_combout\ $end
$var wire 1 T! \inst1|VB[0]~9_combout\ $end
$var wire 1 U! \inst1|VB[1]~7_combout\ $end
$var wire 1 V! \inst1|Add2~1_combout\ $end
$var wire 1 W! \inst1|VB[2]~6_combout\ $end
$var wire 1 X! \inst1|Add2~0_combout\ $end
$var wire 1 Y! \inst1|VB[3]~5_combout\ $end
$var wire 1 Z! \inst1|Equal2~0_combout\ $end
$var wire 1 [! \inst1|AB[1]~2_combout\ $end
$var wire 1 \! \inst1|AB[1]~4_combout\ $end
$var wire 1 ]! \inst1|AB[0]~8_combout\ $end
$var wire 1 ^! \inst1|AB[1]~7_combout\ $end
$var wire 1 _! \inst1|Add3~1_combout\ $end
$var wire 1 `! \inst1|AB[2]~6_combout\ $end
$var wire 1 a! \inst1|Add3~0_combout\ $end
$var wire 1 b! \inst1|AB[3]~5_combout\ $end
$var wire 1 c! \inst1|Equal3~0_combout\ $end
$var wire 1 d! \inst1|Selector9~3_combout\ $end
$var wire 1 e! \inst1|WideOr0~0_combout\ $end
$var wire 1 f! \inst1|Selector10~0_combout\ $end
$var wire 1 g! \inst1|Selector10~1_combout\ $end
$var wire 1 h! \inst1|Selector10~2_combout\ $end
$var wire 1 i! \inst1|Selector9~1_combout\ $end
$var wire 1 j! \ST~input_o\ $end
$var wire 1 k! \inst1|Selector9~0_combout\ $end
$var wire 1 l! \inst1|Selector9~2_combout\ $end
$var wire 1 m! \inst1|Selector9~4_combout\ $end
$var wire 1 n! \inst1|Add0~1_combout\ $end
$var wire 1 o! \inst1|VA[3]~2_combout\ $end
$var wire 1 p! \inst1|VA[3]~1_combout\ $end
$var wire 1 q! \inst1|VA[3]~3_combout\ $end
$var wire 1 r! \inst1|VA[2]~5_combout\ $end
$var wire 1 s! \inst1|Add0~0_combout\ $end
$var wire 1 t! \inst1|VA[3]~4_combout\ $end
$var wire 1 u! \inst1|Equal0~0_combout\ $end
$var wire 1 v! \inst1|AA[0]~2_combout\ $end
$var wire 1 w! \inst1|AA[0]~4_combout\ $end
$var wire 1 x! \inst1|AA[0]~8_combout\ $end
$var wire 1 y! \inst1|AA[1]~7_combout\ $end
$var wire 1 z! \inst1|Add1~1_combout\ $end
$var wire 1 {! \inst1|AA[2]~6_combout\ $end
$var wire 1 |! \inst1|Add1~0_combout\ $end
$var wire 1 }! \inst1|AA[3]~5_combout\ $end
$var wire 1 ~! \inst1|Equal1~0_combout\ $end
$var wire 1 !" \inst1|VB[3]~0_combout\ $end
$var wire 1 "" \inst1|E.TVB_I~0_combout\ $end
$var wire 1 #" \inst1|E.TVB_I~1_combout\ $end
$var wire 1 $" \inst1|E.TVB_I~2_combout\ $end
$var wire 1 %" \inst1|E.TVB_I~q\ $end
$var wire 1 &" \inst1|E.INICIO~4_combout\ $end
$var wire 1 '" \inst1|E.INICIO~1_combout\ $end
$var wire 1 (" \inst1|E.INICIO~2_combout\ $end
$var wire 1 )" \inst1|E.INICIO~3_combout\ $end
$var wire 1 *" \inst1|E.INICIO~5_combout\ $end
$var wire 1 +" \inst1|E.INICIO~q\ $end
$var wire 1 ," \inst1|E.TVA_I~5_combout\ $end
$var wire 1 -" \inst1|E.TVA_I~q\ $end
$var wire 1 ." \inst1|VA[3]~0_combout\ $end
$var wire 1 /" \inst1|E.TAA_I~q\ $end
$var wire 1 0" \inst1|E.TVP_I~0_combout\ $end
$var wire 1 1" \inst1|E.TVP_I~q\ $end
$var wire 1 2" \inst1|BPR~combout\ $end
$var wire 1 3" \inst1|WideOr0~combout\ $end
$var wire 1 4" \inst1|WideOr1~combout\ $end
$var wire 1 5" \inst1|WideOr2~combout\ $end
$var wire 1 6" \inst1|LD\ [5] $end
$var wire 1 7" \inst1|LD\ [4] $end
$var wire 1 8" \inst1|LD\ [3] $end
$var wire 1 9" \inst1|LD\ [2] $end
$var wire 1 :" \inst1|LD\ [1] $end
$var wire 1 ;" \inst1|LD\ [0] $end
$var wire 1 <" \inst1|VA\ [3] $end
$var wire 1 =" \inst1|VA\ [2] $end
$var wire 1 >" \inst1|VA\ [1] $end
$var wire 1 ?" \inst1|VA\ [0] $end
$var wire 1 @" \inst1|VB\ [3] $end
$var wire 1 A" \inst1|VB\ [2] $end
$var wire 1 B" \inst1|VB\ [1] $end
$var wire 1 C" \inst1|VB\ [0] $end
$var wire 1 D" \inst1|VP\ [3] $end
$var wire 1 E" \inst1|VP\ [2] $end
$var wire 1 F" \inst1|VP\ [1] $end
$var wire 1 G" \inst1|VP\ [0] $end
$var wire 1 H" \inst1|AB\ [3] $end
$var wire 1 I" \inst1|AB\ [2] $end
$var wire 1 J" \inst1|AB\ [1] $end
$var wire 1 K" \inst1|AB\ [0] $end
$var wire 1 L" \inst1|AA\ [3] $end
$var wire 1 M" \inst1|AA\ [2] $end
$var wire 1 N" \inst1|AA\ [1] $end
$var wire 1 O" \inst1|AA\ [0] $end
$var wire 1 P" \inst1|ALT_INV_WideOr2~combout\ $end
$upscope $end
$upscope $end
$enddefinitions $end
#0
$dumpvars
0!
1"
0#
1$
0%
1&
0-
0.
0;
0<
1=
x>
1?
1@
1A
1B
1C
1D
1E
0F
0G
1H
0I
1J
0K
0L
0M
0r
zs
zt
zu
1v
0w
0x
1y
0z
0{
1|
0}
0~
0!!
0"!
0#!
0$!
0%!
0&!
0'!
0(!
0)!
0*!
0+!
0,!
0-!
0.!
0/!
10!
01!
02!
13!
14!
15!
06!
07!
08!
09!
0:!
0;!
0<!
0=!
0>!
0?!
0@!
1A!
0B!
0C!
0D!
0E!
0F!
0G!
0H!
0I!
0J!
1K!
1L!
1M!
0N!
1O!
0P!
0Q!
0R!
0S!
0T!
0U!
0V!
0W!
0X!
0Y!
1Z!
0[!
0\!
0]!
0^!
0_!
0`!
0a!
0b!
1c!
0d!
1e!
1f!
0g!
1h!
0i!
0j!
0k!
1l!
1m!
0n!
0o!
1p!
1q!
0r!
0s!
0t!
1u!
0v!
0w!
0x!
0y!
0z!
0{!
0|!
0}!
1~!
1!"
0""
0#"
1$"
0%"
0&"
0'"
1("
0)"
1*"
0+"
1,"
0-"
0."
0/"
00"
01"
12"
13"
04"
05"
1P"
1N
0O
0P
1Q
0R
0S
0T
0U
0V
0W
0X
0Y
0Z
0[
0\
0]
0^
0_
x6"
x7"
x8"
x9"
0:"
x;"
0<"
0="
0>"
0?"
0@"
0A"
0B"
0C"
0D"
0E"
0F"
0G"
0H"
0I"
0J"
0K"
0L"
0M"
0N"
0O"
1n
1o
1p
0q
1j
1k
1l
0m
0`
0a
0b
0c
0d
0e
0f
0g
0h
0i
1'
0(
0)
1*
0+
0,
0/
00
01
02
03
04
05
06
07
08
09
0:
$end
#10000
1#
1G
1-!
1q
1.!
#20000
0#
1%
0G
1F
11!
0-!
1m
0q
0.!
12!
#30000
1#
1G
1-!
1q
1.!
1?"
1>"
1+"
1-"
1{
1#!
1$!
1<!
1""
1."
05!
1?!
1@!
0h!
1k!
0,"
02"
03"
1n!
1s!
0u!
1P
1V
1W
0y
0v
1#"
1&"
1[!
1v!
0l!
1B!
1R!
1>!
0@!
1i!
1)
12
11
0N
0E
1l!
0B!
0R!
0?!
1N!
1S!
0m!
0*"
0$"
0'
0"
0O!
0S!
1m!
#40000
0#
0G
0-!
0q
0.!
#50000
1#
1G
1-!
1q
1.!
0?"
0$!
1g!
0i!
0W
0l!
1h!
02
0m!
#60000
0#
0G
0-!
0q
0.!
#70000
1#
1G
1-!
1q
1.!
1?"
0>"
0#!
1$!
0g!
0V
1W
0h!
12
01
#80000
0#
0G
0-!
0q
0.!
#90000
1#
1G
1-!
1q
1.!
0?"
0$!
1g!
1i!
0n!
0s!
1u!
0W
0N!
0g!
0i!
0p!
1w!
0#"
0&"
1t!
1r!
1l!
1h!
02
1m!
1*"
1$"
0q!
0l!
0h!
1O!
0m!
0r!
0t!
#100000
0#
0G
0-!
0q
0.!
#110000
1#
1G
1-!
1q
1.!
0-"
1/"
0{
17!
1=!
1E!
1d!
0f!
1o!
1x!
1'"
0("
14"
0""
0."
0P
1z
1@!
1p!
0A!
1Q!
0v!
1y!
1{!
1}!
0)
1O
0w!
1R!
1(
1S!
0x!
0y!
0{!
0}!
1T!
#120000
0#
0G
0-!
0q
0.!
#130000
1#
1G
1-!
1q
1.!
1C"
1%"
0/"
1~
1(!
07!
0=!
0E!
1f!
0'"
1("
1)"
04"
18!
1:!
0<!
1\!
0e!
13"
15"
1V!
1X!
0Z!
0P"
1S
1[
1y
0z
0L!
1""
1&"
0f!
1#"
0\!
0*"
0)"
0Q!
1v!
1,
16
0|
1N
0O
0T!
0$"
0M!
0Q
0(
1'
0*
1N!
0O!
#140000
0#
0G
0-!
0q
0.!
#150000
1#
1G
1-!
1q
1.!
0C"
0(!
1T!
1U!
0V!
0X!
1Z!
0[
1L!
0R!
1\!
0""
0&"
1Y!
1W!
06
1*"
1$"
0S!
1M!
0N!
0T!
0U!
0W!
0Y!
1O!
#160000
0#
0G
0-!
0q
0.!
#170000
1#
1G
1-!
1q
1.!
19!
0%"
0~
08!
1;!
1]!
0d!
0o!
1q!
1'"
1,"
1:"
0S
1}
0@!
0[!
1^!
1`!
1b!
1h!
0k!
0>!
1A!
1R!
0,
1R
1S!
1?!
1l!
0\!
0R!
1+
0S!
0]!
0^!
0`!
0b!
1m!
#180000
0#
0G
0-!
0q
0.!
#190000
1#
1.
1G
1L
1j!
1-!
1q
1k!
0l!
1.!
0m!
09!
1?"
1>"
1-"
1{
1#!
1$!
1<!
1w!
0#"
1."
1g!
1n!
1s!
0u!
0:!
0;!
1e!
1""
0'"
0,"
03"
05"
0:"
1P"
1P
1V
1W
0}
0y
1f!
1[!
0w!
1#"
1&"
1>!
1i!
1)
12
11
1|
0R
0N
1l!
0?!
1N!
0*"
0$"
0g!
1Q
0+
0'
1*
0h!
0O!
1m!
#200000
0#
0G
0-!
0q
0.!
#210000
1#
1G
1-!
1q
1.!
0?"
0$!
1g!
0i!
0W
0l!
1h!
02
0m!
#220000
0#
0G
0-!
0q
0.!
#230000
1#
1G
1-!
1q
1.!
1?"
0>"
0#!
1$!
0g!
0V
1W
0h!
12
01
#240000
0#
0G
0-!
0q
0.!
#250000
1#
1G
1-!
1q
1.!
0?"
0$!
1g!
1i!
0n!
0s!
1u!
0W
0N!
0g!
0i!
0p!
1w!
0#"
0&"
1t!
1r!
1l!
1h!
02
1m!
1*"
1$"
0q!
0l!
0h!
1O!
0m!
0r!
0t!
#260000
0#
0&
0G
0J
04!
0-!
0q
16!
1w
0.!
1I
1!
#270000
1#
1G
1-!
1q
1.!
0-"
1/"
0{
1=!
1E!
1d!
0f!
1o!
1x!
1'"
0("
10"
14"
0""
0."
0P
1z
1@!
1p!
1Q!
0v!
1y!
1{!
1}!
0)
1O
0w!
1B!
1R!
1(
1F!
0x!
0y!
0{!
0}!
#280000
0#
1&
0G
1J
14!
0-!
0q
0.!
#290000
1#
1G
1-!
1q
1.!
1F"
0/"
11"
1x
1+!
15!
0B!
1C!
1H!
1J!
0p!
12"
17!
0<!
0=!
0E!
1S!
0d!
0o!
1("
1)"
00"
1G!
1I!
0K!
1M
1^
1v
1B!
0L!
0("
0*"
0)"
1T!
0!"
1\!
0[!
0C!
0H!
0J!
06!
1;
19
1E
0w
0\!
0R!
0$"
1*"
1)"
0M!
1C!
0F!
1"
0I
1N!
0*"
0S!
0!
0T!
0O!
#300000
0#
0G
0-!
0q
0.!
#310000
1#
1G
1-!
1q
1.!
1G"
0F"
0+!
1,!
0C!
0^
1_
1:
09
#320000
0#
0G
0-!
0q
0.!
#330000
1#
1G
1-!
1q
1.!
0G"
0,!
1C!
1D!
0G!
0I!
1K!
0_
0B!
1L!
1!"
1("
1J!
1H!
1F!
0:
0)"
1R!
1$"
1M!
0C!
0F!
0H!
0J!
0N!
1S!
1*"
1T!
1O!
#340000
0#
0G
0-!
0q
0.!
#350000
1#
1G
1-!
1q
1.!
1C"
1%"
01"
0x
1~
1(!
05!
07!
0>!
1B!
0D!
0Q!
1f!
1p!
0'"
02"
04"
18!
1:!
1d!
0e!
1o!
13"
15"
1V!
1X!
0Z!
0P"
0M
1S
1[
1y
0z
0v
0L!
1""
1&"
0f!
1#"
1>!
0A!
1[!
1v!
0T!
1?!
0;
1,
16
0|
1N
0O
0E
0B!
0?!
0*"
0$"
0M!
0Q
0(
1'
0"
0*
1N!
0O!
#360000
0#
0G
0-!
0q
0.!
#370000
1#
1G
1-!
1q
1.!
0C"
0(!
1T!
1U!
0V!
0X!
1Z!
0[
1L!
0R!
1\!
0""
0&"
1Y!
1W!
06
1*"
1$"
0S!
1M!
0N!
0T!
0U!
0W!
0Y!
1O!
#380000
0#
0G
0-!
0q
0.!
#390000
1#
1G
1-!
1q
1.!
19!
0%"
0~
08!
1;!
1]!
0d!
0o!
1q!
1'"
1,"
1:"
0S
1}
0@!
0[!
1^!
1`!
1b!
1h!
0>!
1A!
1R!
0,
1R
1S!
1?!
0\!
0R!
1+
0S!
0]!
0^!
0`!
0b!
#400000
0#
0G
0-!
0q
0.!
#410000
1#
1G
1-!
1q
1.!
09!
1?"
1-"
1{
1$!
1<!
1w!
0#"
1."
1g!
1n!
1s!
0u!
0:!
0;!
1e!
1""
0'"
0,"
03"
05"
0:"
1P"
1P
1W
0}
0y
1f!
1[!
0w!
1#"
1&"
1>!
1)
12
1|
0R
0N
0?!
1N!
0*"
0$"
0g!
1Q
0+
0'
1*
0h!
0O!
#420000
0#
0G
0-!
0q
0.!
#430000
1#
1G
1-!
1q
1.!
0?"
0$!
1g!
1i!
0n!
0s!
1u!
0W
0N!
0g!
0i!
0p!
1w!
0#"
0&"
1t!
1r!
1l!
1h!
02
1m!
1*"
1$"
0q!
0l!
0h!
1O!
0m!
0r!
0t!
#440000
0#
0G
0-!
0q
0.!
#450000
1#
1G
1-!
1q
1.!
0-"
1/"
0{
17!
1=!
1E!
1d!
0f!
1o!
1x!
1'"
0("
14"
0""
0."
0P
1z
1@!
1p!
0A!
1Q!
0v!
1y!
1{!
1}!
0)
1O
0w!
1R!
1(
1S!
0x!
0y!
0{!
0}!
1T!
#460000
0#
0G
0-!
0q
0.!
#470000
1#
1G
1-!
1q
1.!
1C"
1%"
0/"
1~
1(!
07!
0=!
0E!
1f!
0'"
1("
1)"
04"
18!
1:!
0<!
1\!
0e!
13"
15"
1V!
1X!
0Z!
0P"
1S
1[
1y
0z
0L!
1""
1&"
0f!
1#"
0\!
0*"
0)"
0Q!
1v!
1,
16
0|
1N
0O
0T!
0$"
0M!
0Q
0(
1'
0*
1N!
0O!
#480000
0#
0G
0-!
0q
0.!
#490000
1#
1G
1-!
1q
1.!
0C"
0(!
1T!
1U!
0V!
0X!
1Z!
0[
1L!
0R!
1\!
0""
0&"
1Y!
1W!
06
1*"
1$"
0S!
1M!
0N!
0T!
0U!
0W!
0Y!
1O!
#500000
0#
0G
0-!
0q
0.!
#510000
1#
1G
1-!
1q
1.!
19!
0%"
0~
08!
1;!
1]!
0d!
0o!
1q!
1'"
1,"
1:"
0S
1}
0@!
0[!
1^!
1`!
1b!
1h!
0>!
1A!
1R!
0,
1R
1S!
1?!
0\!
0R!
1+
0S!
0]!
0^!
0`!
0b!
#520000
0#
0G
0-!
0q
0.!
#530000
1#
0.
1G
0L
0j!
1-!
1q
0k!
1l!
1.!
1m!
09!
1?"
1-"
1{
1$!
1<!
1w!
0#"
1."
1g!
1n!
1s!
0u!
0:!
0;!
1e!
1""
0'"
0,"
03"
05"
0:"
1P"
1P
1W
0}
0y
1f!
1[!
1k!
0w!
1#"
1&"
1>!
1)
12
1|
0R
0N
0?!
1N!
0*"
0$"
0l!
0g!
1Q
0+
0'
1*
0h!
0m!
0O!
#540000
0#
0G
0-!
0q
0.!
#550000
1#
1G
1-!
1q
1.!
0?"
0$!
1g!
1i!
0n!
0s!
1u!
0W
0N!
0g!
0i!
0p!
1w!
0#"
0&"
1t!
1r!
1l!
1h!
02
1m!
1*"
1$"
0q!
0l!
0h!
1O!
0m!
0r!
0t!
#560000
0#
0G
0-!
0q
0.!
#570000
1#
1G
1-!
1q
1.!
0-"
1/"
0{
17!
1=!
1E!
1d!
0f!
1o!
1x!
1'"
0("
14"
0""
0."
0P
1z
1@!
1p!
0A!
1Q!
0v!
1y!
1{!
1}!
0)
1O
0w!
1R!
1(
1S!
0x!
0y!
0{!
0}!
1T!
#580000
0#
0G
0-!
0q
0.!
#590000
1#
1G
1-!
1q
1.!
1C"
1%"
0/"
1~
1(!
07!
0=!
0E!
1f!
0'"
1("
1)"
04"
18!
1:!
0<!
1\!
0e!
13"
15"
1V!
1X!
0Z!
0P"
1S
1[
1y
0z
0L!
1""
1&"
0f!
1#"
0\!
0*"
0)"
0Q!
1v!
1,
16
0|
1N
0O
0T!
0$"
0M!
0Q
0(
1'
0*
1N!
0O!
#600000
0#
0G
0-!
0q
0.!
#610000
1#
1G
1-!
1q
1.!
0C"
0(!
1T!
1U!
0V!
0X!
1Z!
0[
1L!
0R!
1\!
0""
0&"
1Y!
1W!
06
1*"
1$"
0S!
1M!
0N!
0T!
0U!
0W!
0Y!
1O!
#620000
0#
0G
0-!
0q
0.!
#630000
1#
1G
1-!
1q
1.!
19!
0%"
0~
08!
1;!
1]!
0d!
0o!
1q!
1'"
1,"
1:"
0S
1}
0@!
0[!
1^!
1`!
1b!
1h!
0k!
0>!
1A!
1R!
0,
1R
1S!
1?!
1l!
0\!
0R!
1+
0S!
0]!
0^!
0`!
0b!
1m!
#640000
0#
0G
0-!
0q
0.!
#650000
1#
1G
1-!
1q
1.!
09!
1?"
1>"
1-"
1{
1#!
1$!
1<!
1w!
0#"
1."
1g!
1n!
1s!
0u!
0:!
0;!
1e!
1""
0'"
0,"
03"
05"
0:"
1P"
1P
1V
1W
0}
0y
1f!
1[!
1k!
0w!
1#"
1&"
1>!
1i!
1)
12
11
1|
0R
0N
0?!
1N!
0*"
0$"
0g!
1Q
0+
0'
1*
0h!
0O!
#660000
0#
0G
0-!
0q
0.!
#670000
1#
1G
1-!
1q
1.!
0?"
0$!
1g!
0i!
0W
0l!
1h!
02
0m!
#680000
0#
0G
0-!
0q
0.!
#690000
1#
1G
1-!
1q
1.!
1?"
0>"
0#!
1$!
0g!
0V
1W
0h!
12
01
#700000
0#
0G
0-!
0q
0.!
#710000
1#
1G
1-!
1q
1.!
0?"
0$!
1g!
1i!
0n!
0s!
1u!
0W
0N!
0g!
0i!
0p!
1w!
0#"
0&"
1t!
1r!
1l!
1h!
02
1m!
1*"
1$"
0q!
0l!
0h!
1O!
0m!
0r!
0t!
#720000
0#
0G
0-!
0q
0.!
#730000
1#
1G
1-!
1q
1.!
0-"
1/"
0{
17!
1=!
1E!
1d!
0f!
1o!
1x!
1'"
0("
14"
0""
0."
0P
1z
1@!
1p!
0A!
1Q!
0v!
1y!
1{!
1}!
0)
1O
0w!
1R!
1(
1S!
0x!
0y!
0{!
0}!
1T!
#740000
0#
0G
0-!
0q
0.!
#750000
1#
1G
1-!
1q
1.!
1C"
1%"
0/"
1~
1(!
07!
0=!
0E!
1f!
0'"
1("
1)"
04"
18!
1:!
0<!
1\!
0e!
13"
15"
1V!
1X!
0Z!
0P"
1S
1[
1y
0z
0L!
1""
1&"
0f!
1#"
0\!
0*"
0)"
0Q!
1v!
1,
16
0|
1N
0O
0T!
0$"
0M!
0Q
0(
1'
0*
1N!
0O!
#760000
0#
0G
0-!
0q
0.!
#770000
1#
1G
1-!
1q
1.!
0C"
0(!
1T!
1U!
0V!
0X!
1Z!
0[
1L!
0R!
1\!
0""
0&"
1Y!
1W!
06
1*"
1$"
0S!
1M!
0N!
0T!
0U!
0W!
0Y!
1O!
#780000
0#
0G
0-!
0q
0.!
#790000
1#
1G
1-!
1q
1.!
19!
0%"
0~
08!
1;!
1]!
0d!
0o!
1q!
1'"
1,"
1:"
0S
1}
0@!
0[!
1^!
1`!
1b!
1h!
0k!
0>!
1A!
1R!
0,
1R
1S!
1?!
1l!
0\!
0R!
1+
0S!
0]!
0^!
0`!
0b!
1m!
#800000
0#
0G
0-!
0q
0.!
#810000
1#
1G
1-!
1q
1.!
09!
1?"
1>"
1-"
1{
1#!
1$!
1<!
1w!
0#"
1."
1g!
1n!
1s!
0u!
0:!
0;!
1e!
1""
0'"
0,"
03"
05"
0:"
1P"
1P
1V
1W
0}
0y
1f!
1[!
1k!
0w!
1#"
1&"
1>!
1i!
1)
12
11
1|
0R
0N
0?!
1N!
0*"
0$"
0g!
1Q
0+
0'
1*
0h!
0O!
#820000
0#
0G
0-!
0q
0.!
#830000
1#
1G
1-!
1q
1.!
0?"
0$!
1g!
0i!
0W
0l!
1h!
02
0m!
#840000
0#
0G
0-!
0q
0.!
#850000
1#
1G
1-!
1q
1.!
1?"
0>"
0#!
1$!
0g!
0V
1W
0h!
12
01
#860000
0#
0G
0-!
0q
0.!
#870000
1#
1G
1-!
1q
1.!
0?"
0$!
1g!
1i!
0n!
0s!
1u!
0W
0N!
0g!
0i!
0p!
1w!
0#"
0&"
1t!
1r!
1l!
1h!
02
1m!
1*"
1$"
0q!
0l!
0h!
1O!
0m!
0r!
0t!
#880000
0#
0G
0-!
0q
0.!
#890000
1#
1G
1-!
1q
1.!
0-"
1/"
0{
17!
1=!
1E!
1d!
0f!
1o!
1x!
1'"
0("
14"
0""
0."
0P
1z
1@!
1p!
0A!
1Q!
0v!
1y!
1{!
1}!
0)
1O
0w!
1R!
1(
1S!
0x!
0y!
0{!
0}!
1T!
#900000
0#
0G
0-!
0q
0.!
#910000
1#
1G
1-!
1q
1.!
1C"
1%"
0/"
1~
1(!
07!
0=!
0E!
1f!
0'"
1("
1)"
04"
18!
1:!
0<!
1\!
0e!
13"
15"
1V!
1X!
0Z!
0P"
1S
1[
1y
0z
0L!
1""
1&"
0f!
1#"
0\!
0*"
0)"
0Q!
1v!
1,
16
0|
1N
0O
0T!
0$"
0M!
0Q
0(
1'
0*
1N!
0O!
#920000
0#
0G
0-!
0q
0.!
#930000
1#
1G
1-!
1q
1.!
0C"
0(!
1T!
1U!
0V!
0X!
1Z!
0[
1L!
0R!
1\!
0""
0&"
1Y!
1W!
06
1*"
1$"
0S!
1M!
0N!
0T!
0U!
0W!
0Y!
1O!
#940000
0#
1-
0G
1K
1/!
0-!
0q
08!
0:!
1<!
1f!
0o!
0#"
1q!
1w!
0>!
1A!
1R!
0.!
1S!
1B!
1?!
