Projeto1/simulation/qsim/FSM.msim.vcd
$comment
	File created using the following command:
		vcd file FSM.msim.vcd -direction
$end
$date
	Wed Oct 01 14:49:09 2025
$end
$version
	ModelSim Version 10.5b
$end
$timescale
	1ps
$end

$scope module fsm_vhd_vec_tst $end
$var wire 1 ! BP $end
$var wire 1 " BPR $end
$var wire 1 # CK $end
$var wire 1 $ CK_EN $end
$var wire 1 % INI $end
$var wire 1 & LD [5] $end
$var wire 1 ' LD [4] $end
$var wire 1 ( LD [3] $end
$var wire 1 ) LD [2] $end
$var wire 1 * LD [1] $end
$var wire 1 + LD [0] $end
$var wire 1 , SF $end
$var wire 1 - ST $end
$var wire 1 . TVA [3] $end
$var wire 1 / TVA [2] $end
$var wire 1 0 TVA [1] $end
$var wire 1 1 TVA [0] $end
$var wire 1 2 TVB [3] $end
$var wire 1 3 TVB [2] $end
$var wire 1 4 TVB [1] $end
$var wire 1 5 TVB [0] $end
$var wire 1 6 TVP [3] $end
$var wire 1 7 TVP [2] $end
$var wire 1 8 TVP [1] $end
$var wire 1 9 TVP [0] $end
$var wire 1 : VDP $end

$scope module i1 $end
$var wire 1 ; gnd $end
$var wire 1 < vcc $end
$var wire 1 = unknown $end
$var wire 1 > devoe $end
$var wire 1 ? devclrn $end
$var wire 1 @ devpor $end
$var wire 1 A ww_devoe $end
$var wire 1 B ww_devclrn $end
$var wire 1 C ww_devpor $end
$var wire 1 D ww_INI $end
$var wire 1 E ww_CK $end
$var wire 1 F ww_CK_EN $end
$var wire 1 G ww_BP $end
$var wire 1 H ww_SF $end
$var wire 1 I ww_ST $end
$var wire 1 J ww_BPR $end
$var wire 1 K ww_VDP $end
$var wire 1 L ww_TVA [3] $end
$var wire 1 M ww_TVA [2] $end
$var wire 1 N ww_TVA [1] $end
$var wire 1 O ww_TVA [0] $end
$var wire 1 P ww_TVB [3] $end
$var wire 1 Q ww_TVB [2] $end
$var wire 1 R ww_TVB [1] $end
$var wire 1 S ww_TVB [0] $end
$var wire 1 T ww_TVP [3] $end
$var wire 1 U ww_TVP [2] $end
$var wire 1 V ww_TVP [1] $end
$var wire 1 W ww_TVP [0] $end
$var wire 1 X ww_LD [5] $end
$var wire 1 Y ww_LD [4] $end
$var wire 1 Z ww_LD [3] $end
$var wire 1 [ ww_LD [2] $end
$var wire 1 \ ww_LD [1] $end
$var wire 1 ] ww_LD [0] $end
$var wire 1 ^ \BPR~output_o\ $end
$var wire 1 _ \VDP~output_o\ $end
$var wire 1 ` \TVA[0]~output_o\ $end
$var wire 1 a \TVA[1]~output_o\ $end
$var wire 1 b \TVA[2]~output_o\ $end
$var wire 1 c \TVA[3]~output_o\ $end
$var wire 1 d \TVB[0]~output_o\ $end
$var wire 1 e \TVB[1]~output_o\ $end
$var wire 1 f \TVB[2]~output_o\ $end
$var wire 1 g \TVB[3]~output_o\ $end
$var wire 1 h \TVP[0]~output_o\ $end
$var wire 1 i \TVP[1]~output_o\ $end
$var wire 1 j \TVP[2]~output_o\ $end
$var wire 1 k \TVP[3]~output_o\ $end
$var wire 1 l \LD[0]~output_o\ $end
$var wire 1 m \LD[1]~output_o\ $end
$var wire 1 n \LD[2]~output_o\ $end
$var wire 1 o \LD[3]~output_o\ $end
$var wire 1 p \LD[4]~output_o\ $end
$var wire 1 q \LD[5]~output_o\ $end
$var wire 1 r \CK~input_o\ $end
$var wire 1 s \SF~input_o\ $end
$var wire 1 t \INI~input_o\ $end
$var wire 1 u \BP~input_o\ $end
$var wire 1 v \E.TVB_I~8_combout\ $end
$var wire 1 w \CK_EN~input_o\ $end
$var wire 1 x \E.TVB_I~9_combout\ $end
$var wire 1 y \ST~input_o\ $end
$var wire 1 z \VA[0]~0_combout\ $end
$var wire 1 { \VA[0]~4_combout\ $end
$var wire 1 | \Selector26~0_combout\ $end
$var wire 1 } \E.TVA_I~8_combout\ $end
$var wire 1 ~ \Selector22~0_combout\ $end
$var wire 1 !! \VP[0]~1_combout\ $end
$var wire 1 "! \VP[1]~2_combout\ $end
$var wire 1 #! \Add4~0_combout\ $end
$var wire 1 $! \VP[2]~3_combout\ $end
$var wire 1 %! \Equal4~0_combout\ $end
$var wire 1 &! \E.INICIO~2_combout\ $end
$var wire 1 '! \VB[0]~0_combout\ $end
$var wire 1 (! \VB[0]~1_combout\ $end
$var wire 1 )! \VB[0]~2_combout\ $end
$var wire 1 *! \Selector21~0_combout\ $end
$var wire 1 +! \Selector20~0_combout\ $end
$var wire 1 ,! \Add2~0_combout\ $end
$var wire 1 -! \Selector19~0_combout\ $end
$var wire 1 .! \Equal2~0_combout\ $end
$var wire 1 /! \AB[1]~0_combout\ $end
$var wire 1 0! \Add3~2_combout\ $end
$var wire 1 1! \Add3~1_combout\ $end
$var wire 1 2! \Add3~0_combout\ $end
$var wire 1 3! \Equal3~0_combout\ $end
$var wire 1 4! \VA[0]~5_combout\ $end
$var wire 1 5! \VA[0]~6_combout\ $end
$var wire 1 6! \Add0~0_combout\ $end
$var wire 1 7! \VA[1]~1_combout\ $end
$var wire 1 8! \Add0~1_combout\ $end
$var wire 1 9! \VA[2]~2_combout\ $end
$var wire 1 :! \Add0~2_combout\ $end
$var wire 1 ;! \VA[3]~3_combout\ $end
$var wire 1 <! \Equal0~0_combout\ $end
$var wire 1 =! \AA[0]~0_combout\ $end
$var wire 1 >! \AA[0]~3_combout\ $end
$var wire 1 ?! \AA[1]~4_combout\ $end
$var wire 1 @! \Add1~1_combout\ $end
$var wire 1 A! \AA[2]~2_combout\ $end
$var wire 1 B! \Add1~0_combout\ $end
$var wire 1 C! \AA[3]~1_combout\ $end
$var wire 1 D! \Equal1~0_combout\ $end
$var wire 1 E! \VP[0]~0_combout\ $end
$var wire 1 F! \VP[3]~4_combout\ $end
$var wire 1 G! \E.TVB_I~2_combout\ $end
$var wire 1 H! \E.TVB_I~3_combout\ $end
$var wire 1 I! \E.TVB_I~4_combout\ $end
$var wire 1 J! \E.TVB_I~5_combout\ $end
$var wire 1 K! \E.TVB_I~6_combout\ $end
$var wire 1 L! \E.TVB_I~7_combout\ $end
$var wire 1 M! \E.TVB_I~q\ $end
$var wire 1 N! \E.INICIO~4_combout\ $end
$var wire 1 O! \E.TAB~q\ $end
$var wire 1 P! \E.INICIO~0_combout\ $end
$var wire 1 Q! \E.INICIO~1_combout\ $end
$var wire 1 R! \E.INICIO~3_combout\ $end
$var wire 1 S! \E.INICIO~5_combout\ $end
$var wire 1 T! \E.INICIO~6_combout\ $end
$var wire 1 U! \E.INICIO~q\ $end
$var wire 1 V! \E.TVA_I~7_combout\ $end
$var wire 1 W! \E.TVA_I~2_combout\ $end
$var wire 1 X! \E.TVA_I~1_combout\ $end
$var wire 1 Y! \E.TVA_I~3_combout\ $end
$var wire 1 Z! \E.TVA_I~4_combout\ $end
$var wire 1 [! \E.TVA_I~5_combout\ $end
$var wire 1 \! \E.TVA_I~6_combout\ $end
$var wire 1 ]! \E.TVA_I~q\ $end
$var wire 1 ^! \E.TVA_I~0_combout\ $end
$var wire 1 _! \E.TAA_I~q\ $end
$var wire 1 `! \E.TVP_I~0_combout\ $end
$var wire 1 a! \E.TVP_I~q\ $end
$var wire 1 b! \BPR~0_combout\ $end
$var wire 1 c! \E.FALHA~0_combout\ $end
$var wire 1 d! \E.FALHA~q\ $end
$var wire 1 e! \LD~0_combout\ $end
$var wire 1 f! \WideOr7~combout\ $end
$var wire 1 g! \WideOr6~combout\ $end
$var wire 1 h! \WideOr5~combout\ $end
$var wire 1 i! VA [3] $end
$var wire 1 j! VA [2] $end
$var wire 1 k! VA [1] $end
$var wire 1 l! VA [0] $end
$var wire 1 m! AB [3] $end
$var wire 1 n! AB [2] $end
$var wire 1 o! AB [1] $end
$var wire 1 p! AB [0] $end
$var wire 1 q! VB [3] $end
$var wire 1 r! VB [2] $end
$var wire 1 s! VB [1] $end
$var wire 1 t! VB [0] $end
$var wire 1 u! VP [3] $end
$var wire 1 v! VP [2] $end
$var wire 1 w! VP [1] $end
$var wire 1 x! VP [0] $end
$var wire 1 y! AA [3] $end
$var wire 1 z! AA [2] $end
$var wire 1 {! AA [1] $end
$var wire 1 |! AA [0] $end
$var wire 1 }! \ALT_INV_WideOr7~combout\ $end
$var wire 1 ~! \ALT_INV_E.TAB~q\ $end
$upscope $end
$upscope $end
$enddefinitions $end
#0
$dumpvars
0!
1"
0#
1$
0%
0,
0-
0:
0;
1<
x=
1>
1?
1@
1A
1B
1C
0D
0E
1F
0G
0H
0I
1J
0K
1^
0_
0`
0a
0b
0c
0d
0e
0f
0g
0h
0i
0j
0k
0l
0m
1n
0o
0p
1q
0r
0s
0t
0u
0v
1w
0x
0y
0z
1{
0|
0}
1~
0!!
0"!
0#!
0$!
1%!
0&!
0'!
0(!
0)!
1*!
1+!
0,!
0-!
1.!
0/!
10!
11!
12!
13!
14!
05!
06!
07!
08!
09!
0:!
1;!
1<!
0=!
0>!
0?!
0@!
0A!
0B!
0C!
0D!
0E!
0F!
0G!
0H!
0I!
0J!
0K!
1L!
0M!
0N!
0O!
0P!
0Q!
0R!
0S!
1T!
0U!
1V!
0W!
0X!
0Y!
0Z!
0[!
1\!
0]!
0^!
0_!
0`!
0a!
1b!
0c!
0d!
0e!
0f!
0g!
1h!
1}!
1~!
0L
0M
0N
0O
0P
0Q
0R
0S
0T
0U
0V
0W
1X
0Y
0Z
1[
0\
0]
0i!
0j!
0k!
0l!
0m!
0n!
0o!
0p!
0q!
0r!
0s!
0t!
0u!
0v!
0w!
0x!
0y!
0z!
0{!
0|!
1&
0'
0(
1)
0*
0+
0.
0/
00
01
02
03
04
05
06
07
08
09
$end
#10000
1#
1E
1r
#20000
0#
1%
0E
1D
1t
0r
#30000
1#
1E
1r
1i!
1U!
1]!
1o
1c
1z
15!
17!
19!
1^!
0V!
0b!
1c!
0h!
1:!
0<!
1Z
1L
0q
0^
05!
1K!
0;!
1S!
1X!
1(
1.
0X
0J
1Y!
0c!
0T!
0L!
0&
0"
0\!
#40000
0#
0E
0r
#50000
1#
1E
1r
1l!
1k!
1j!
0i!
0c
1b
1a
1`
0z
0L
1M
1N
1O
11
10
1/
0.
#60000
0#
0E
0r
#70000
1#
1E
1r
0l!
0`
1z
16!
0O
07!
01
#80000
0#
0E
0r
#90000
1#
1E
1r
1l!
0k!
0a
1`
0z
0N
1O
11
00
#100000
0#
0E
0r
#110000
1#
1E
1r
0l!
0`
1z
06!
18!
0O
09!
17!
01
#120000
0#
0E
0r
#130000
1#
1E
1r
1l!
1k!
0j!
0b
1a
1`
0z
0M
1N
1O
11
10
0/
#140000
0#
0E
0r
#150000
1#
1E
1r
0l!
0`
1z
16!
0O
07!
01
#160000
0#
0E
0r
#170000
1#
1E
1r
1l!
0k!
0a
1`
0z
0N
1O
11
00
#180000
0#
0E
0r
#190000
1#
1E
1r
0l!
0`
1z
06!
08!
0:!
1<!
0O
15!
1=!
0K!
0S!
0Y!
1;!
19!
17!
01
1\!
1T!
1L!
#200000
0#
0E
0r
#210000
1#
1E
1r
0]!
1_!
0o
1v
1'!
1>!
1?!
1A!
1C!
1H!
1P!
1g!
0z
0{
05!
07!
09!
1Y!
0^!
0Z
1p
0=!
04!
1Q!
1(!
0(
1Y
1)!
15!
0>!
0?!
0A!
0C!
1'
#220000
0#
0E
0r
#230000
1#
1E
1r
1t!
1s!
1r!
1M!
0_!
1l
1f
1e
1d
0v
0'!
0H!
0P!
0Q!
1R!
0g!
1-!
1N!
1f!
1h!
0~
1,!
0.!
0}!
1]
1Q
1R
1S
1q
0p
1J!
1Z!
0-!
1S!
0T!
0R!
1+
15
14
13
0n
1X
0Y
1[!
1K!
0[
0'
1&
0)
0L!
0\!
#240000
0#
0E
0r
#250000
1#
1E
1r
0t!
0d
1~
0*!
0S
05
#260000
0#
0E
0r
#270000
1#
1E
1r
1t!
0s!
0e
1d
0~
0R
1S
15
04
#280000
0#
0E
0r
#290000
1#
1E
1r
0t!
0d
1~
1*!
0+!
0S
05
#300000
0#
0E
0r
#310000
1#
1E
1r
1t!
1s!
0r!
0f
1e
1d
0~
0Q
1R
1S
15
14
03
#320000
0#
0E
0r
#330000
1#
1E
1r
0t!
0d
1~
0*!
0S
05
#340000
0#
0E
0r
#350000
1#
1E
1r
1t!
0s!
0e
1d
0~
0R
1S
15
04
#360000
0#
0E
0r
#370000
1#
1-
1E
1I
1y
1r
0t!
1z
17!
19!
0;!
0d
1~
1*!
1+!
0,!
1.!
0S
0(!
1/!
0J!
0S!
0Z!
1-!
05
0[!
1T!
0K!
0)!
1L!
1\!
#380000
0#
0E
0r
#390000
1#
1E
1r
0M!
1O!
0~!
0l
1{
1|
1P!
1V!
1e!
0-!
0N!
0]
1m
0/!
0X!
14!
0+
1\
05!
0Y!
1c!
1*
#400000
0#
0E
0r
#410000
1#
1E
1r
1l!
1k!
1j!
0O!
1]!
1~!
1o
1b
1a
1`
15!
1;!
1^!
0|
0P!
0V!
0e!
0f!
0h!
0z
1:!
0<!
1}!
1Z
1M
1N
1O
0q
0m
05!
1K!
0;!
1S!
1X!
1(
11
10
1/
1n
0X
0\
1Y!
0c!
0T!
0L!
1[
0*
0&
1)
0\!
#420000
0#
0E
0r
#430000
1#
1E
1r
0l!
0`
1z
16!
0O
07!
01
#440000
0#
0E
0r
#450000
1#
1E
1r
1l!
0k!
0a
1`
0z
0N
1O
11
00
#460000
0#
1!
0E
1G
1u
0r
#470000
1#
1E
1r
0l!
0`
1z
06!
18!
0O
09!
17!
01
#480000
0#
0E
0r
#490000
1#
1E
1r
1l!
1k!
0j!
0b
1a
1`
0z
0M
1N
1O
11
10
0/
#500000
0#
0E
0r
#510000
1#
1E
1r
0l!
0`
1z
16!
0O
07!
01
#520000
0#
0E
0r
#530000
1#
0-
1E
0I
0y
1r
1l!
0k!
0a
1`
0z
0N
1O
11
00
#540000
0#
0E
0r
#550000
1#
1E
1r
0l!
0`
1z
06!
08!
0:!
1<!
0O
15!
1=!
0K!
0S!
0Y!
1;!
19!
17!
01
1\!
1T!
1L!
#560000
0#
0E
0r
#570000
1#
1E
1r
0]!
1_!
0o
1>!
1?!
1A!
1C!
1H!
1P!
1`!
1g!
0z
0{
05!
07!
09!
1Y!
0^!
0Z
1p
0=!
04!
1E!
1Q!
0(
1Y
1F!
15!
0>!
0?!
0A!
0C!
1'
#580000
0#
0!
0E
0G
0u
0r
1v
1'!
0`!
0E!
1(!
1)!
0F!
#590000
1#
1E
1r
1t!
1s!
1r!
1M!
0_!
1l
1f
1e
1d
0v
0'!
0H!
0P!
0Q!
1R!
0g!
1-!
1N!
1f!
1h!
0~
1,!
0.!
0}!
1]
1Q
1R
1S
1q
0p
1J!
1Z!
0-!
1S!
0T!
0R!
1+
15
14
13
0n
1X
0Y
1[!
1K!
0[
0'
1&
0)
0L!
0\!
#600000
0#
0E
0r
#610000
1#
1E
1r
0t!
0d
1~
0*!
0S
05
#620000
0#
0E
0r
#630000
1#
1E
1r
1t!
0s!
0e
1d
0~
0R
1S
15
04
#640000
0#
0E
0r
#650000
1#
1E
1r
0t!
0d
1~
1*!
0+!
0S
05
#660000
0#
0E
0r
#670000
1#
1E
1r
1t!
1s!
0r!
0f
1e
1d
0~
0Q
1R
1S
15
14
03
#680000
0#
0E
0r
#690000
1#
1E
1r
0t!
0d
1~
0*!
0S
05
#700000
0#
0E
0r
#710000
1#
1E
1r
1t!
0s!
0e
1d
0~
0R
1S
15
04
#720000
0#
0E
0r
#730000
1#
1E
1r
0t!
0d
1~
1*!
1+!
0,!
1.!
0S
0(!
1/!
0J!
0S!
0Z!
1-!
05
0[!
1T!
0K!
0)!
1L!
1\!
#740000
0#
0E
0r
#750000
1#
1E
1r
0M!
1O!
0~!
0l
1{
1|
1P!
1V!
1e!
0-!
0N!
0]
1m
0/!
0X!
14!
0+
1\
05!
0Y!
1c!
1*
#760000
0#
0E
0r
#770000
1#
1E
1r
1i!
0O!
1]!
1~!
1o
1c
1z
15!
17!
19!
1^!
0|
0P!
0V!
0e!
0f!
0h!
1:!
0<!
1}!
1Z
1L
0q
0m
05!
1K!
0;!
1S!
1X!
1(
1.
1n
0X
0\
1Y!
0c!
0T!
0L!
1[
0*
0&
1)
0\!
#780000
0#
0E
0r
#790000
1#
1E
1r
1l!
1k!
1j!
0i!
0c
1b
1a
1`
0z
0L
1M
1N
1O
11
10
1/
0.
#800000
0#
0E
0r
#810000
1#
1E
1r
0l!
0`
1z
16!
0O
07!
01
#820000
0#
0E
0r
#830000
1#
1E
1r
1l!
0k!
0a
1`
0z
0N
1O
11
00
#840000
0#
0E
0r
#850000
1#
1E
1r
0l!
0`
1z
06!
18!
0O
09!
17!
01
#860000
0#
0E
0r
#870000
1#
1E
1r
1l!
1k!
0j!
0b
1a
1`
0z
0M
1N
1O
11
10
0/
#880000
0#
1,
0E
1H
1s
0r
15!
1L!
0^!
0S!
0X!
0Y!
1c!
1T!
1\!
#890000
1#
1E
1r
0]!
1d!
0o
1e!
1f!
1g!
0{
05!
07!
1;!
0K!
0}!
0Z
1p
1m
04!
0(
0n
1Y
1\
15!
0[
1*
1'
0)
#900000
0#
0E
0r
#910000
1#
1E
1r
#920000
0#
0,
0E
0H
0s
0r
#930000
1#
1E
1r
#940000
0#
0E
0r
#950000
1#
1E
1r
#960000
0#
0E
0r
#970000
1#
1E
1r
#980000
0#
0E
0r
#990000
1#
1E
1r
